{
  "type": "service_account",
  "project_id": "po-apps",
  "private_key_id": "41fd061e8b210f86d219b89fafeed3f35ac82cdd",
  "private_key": "-----BEGIN PRIVATE KEY-----\nMIIEvQIBADANBgkqhkiG9w0BAQEFAASCBKcwggSjAgEAAoIBAQDEZKeZDv4dcMhk\nHQrFQOBcN3YeqDYzQRbu071cVn2TTgXN/ob+AV+UPYRL9oHLD0u5OozeugeEXrXa\nI4qsyqDq98YhiEOSFvRGn3NwboVkTovXiKUB0N497KFIf1q5Oef6XR7wNwfDR69Q\nx8dpauj8Tm9cq+ze7N1Gr9/EaG8adkxGlia+ymF6Q0VAWvAFCen9ATQYEZMysMXu\nIV8zpDM2QXjIXmxX1goVYMmlgaFKlVN1dvwHx1digdWSZ6KWmefUF3ocdULThJil\n+8r4e5O/Fqu6bmuGIsHtVKbmqzRBo2r0LI16UVs64arU3YnkZFzIeDsXvFTKC2hy\nCqmxak+tAgMBAAECggEAENJkTqZrmr710ylvqjyn2w4/FlonJlW9bqCBWD7qS6tD\nsQTLsEcS1kI8qjsHnAqH3GpI9azuhuaL4g7oSmuiw+2MMYQX8ZP4wXHX8/nrgA+A\nR+pi49htqNUzbV/HOBVfKuE+DKpSBmaF/D/Yc02efjoDrObnB6M3Qt4+pvahCZ2Q\n6iBaTi1q57W+1ubiPbQUofng9XE7EXhZasg+KX/GR3L/iI03frUqKROt8lGJ5Aeh\n8/U6QL0zjs1wAXEsRmZ63d9QvEq16d8KbR36a+sjdVsqOTwhT9fghnJDG2h6Co03\nOcsyk9cL5P9yZsKmtrlVYlDcNEPUY8MZFhiNM3VDKwKBgQDtjIKQXilE9sU2ZbA1\nzbsVVujHZ76wYMIpQLKluZjJOgzOQ3D/PxUuj3kyTecEGBu89+a5Lzl3Kd5EoP41\nymsS5YtrzpWYlVIcZtXvN4+jVGPFMgZP1m7qYMded2LVqJNvZ8SoNQZ1iogb+uB5\nyzTT61ZXaQEq39hFZEKiM4bxdwKBgQDTpcsOiyUthKvXsGGpqF6GqazBc93Xi+7k\nCtKrQowHQ62KjF9SJeFPnucz1Wd7ZrayzoDE0eAQbMPRNHzXsNqzzpfLSKGzv2tR\nTZAu5SD1tQc9+9aDnq734/wwtnHH1CGSv84xJ5Nf6BASOmqg5dsX30mWSUhe23hZ\nMz0yMyTw+wKBgHZmN1lvpVA7UxaG3qoijaHYPJPPEMtmnr/jAGf7trxtU56nHLYM\nIimf1z+Mdp2iyoiIYxZgBFtxodhBChOTfYTgpnoocIWpv1BqrSzbW5uD32qVQXIf\npg7qB9T82mU17a50YR+Ztkt1rduMUsBB2WXbAaD1tGBDS89iZpfj6NmHAoGAYEkh\nytkEreOYpgSJObzuXAcfH9dNin0PzlEaLG2W9MsWTVy1FNNE4IsjFdK1RE+jOE94\nB5KPhAlnQGrHjPzZUknfhszhO7wO36sQuDTnPMEBrXI/0htD8GSY27R0qPtZ1sBJ\n1tTxWAVkIlbPIanQddjQSn3GXdkstC/6XDcmTDcCgYEA0FPU5rxhLr2H+sJcK+f7\nT4jr1lKSJnqltHUOPcYqOEf7okpNxr796dPMNMhMKmZj1G2ewC9KIUdQhQmtxRgO\nyxz/ruvcjYEmqj6MtlBx5aGZ4SAmkJDwi/mVUvXzuLOy87RVoCg/J5DORdDi1M+e\nBOzQiyKMYYyFUHuoqbpNuRc=\n-----END PRIVATE KEY-----\n",
  "client_email": "vision@po-apps.iam.gserviceaccount.com",
  "client_id": "105984617399696521702",
  "auth_uri": "https://accounts.google.com/o/oauth2/auth",
  "token_uri": "https://oauth2.googleapis.com/token",
  "auth_provider_x509_cert_url": "https://www.googleapis.com/oauth2/v1/certs",
  "client_x509_cert_url": "https://www.googleapis.com/robot/v1/metadata/x509/vision%40po-apps.iam.gserviceaccount.com"
}
