{
  "type": "service_account",
  "project_id": "po-apps",
  "private_key_id": "00964021e695abb73c9b262c914c124d8d67f091",
  "private_key": "-----BEGIN PRIVATE KEY-----\nMIIEvQIBADANBgkqhkiG9w0BAQEFAASCBKcwggSjAgEAAoIBAQDNFeEraPVNXWUg\noSfjjrB88zi6I/O0AYH1FmS3WrPKKwnj7iWuE9cd2ufI6Tph4ANDhGfNSfbSFx8l\nBO9u6HHwoQkgFBy823iXV8mQ4JxlBJ3TBIYUxf13aqNF2gPdkojoUKIhhQhSPVdR\nkzOqeZLaukcM3oJ7VPhuiWjy/zAI2goTZVBjYYUz6SXuMwuDgIf3v6tq0tR90gqY\nwvuGkaQOC3d+fLhdPX+YhpO4nX8weI/N4dlTw+cnmWzpEcXWpJSMI2jnHinubNEk\nP7PZo6Y6uU7+1Ugg8v7+ZVUzXQQE7BXc0CK8QQkU815LwkZt9UFKw0EHaYeIcJvm\n0P7wJFl/AgMBAAECggEAZJMLy1mcHtYj72YI5VBHHee7VJGoBIlOva4/MyoAjK8h\nmQ1jniRttN7zF3TFJFWS1CwdKbBRokMji2iJsRa+NdcLXhdu5nEtCO9M0sdL+0BR\n07fet1ZHUKZTrsBVb/ZaPK+6avzOEWKyrTcmub4INkru6BFA5RHNCYxKkwxxdozx\na6f0Pd4PLHpT0bUVQPJ9HP6vCL5Gb/H4VzIfsiTVgSD2LvRtkYSOp3vbGLfQ9GOa\nHsj79I9TdfHj8IDjM4zVIWiKFJGEKDLaDr8EKf/0ExwY0dMSiWkw4/bfQxcrJhSl\nox9vC0E5DTSmEbeO2PdJvEWzMFGPYPXi3+WX4i1hdQKBgQD8FnsE+SdlBeFLP6S7\nTiwC+Bobre5vJoE8RrA5WSG9Fp0ZscTGoEWe177Ru2tngqXg4viQZ03pQkmJ9jq0\nKPuE2UkbhyIMn2Pn4oze8UZgl4K8RGFgUC0jPQi+0uelmLBdlt5pN9UUsY6iUioK\n/VaZg5WIO9Kdfv5VqfAvkF/HKwKBgQDQRKnXI6b9pF7rmIlkHgabUD+8tNc+Zqxm\nfe0nwauxP76AqAmcsX5IW2j+hklnzdbF+2L48q32r11LAf/ZgfqCQd81fX3Npng2\nP4saAZ4IecW/41nwmO0wRQeSfG3ZA62/vQ92Mn4jDatqe7nx2DUDqTe9DnnW4VfU\nufQDGTOM/QKBgB0lGDn9+GEEqgSCKjCBnDMHrjUPCecN45ktbwhiVrU+3RDwbZit\nRP9VYDltWsCP6U+zzhsb5nUWddwefLEBn/q/CGXHXNdqwik4FyNbb9CRE8tieIOj\nIWTWlKFDTwblPVbEr5gonVkUIjKAH14/5fg/r1Ud3X7aBNuwlxVYssobAoGALWib\nI0Yptamt7G4wnnyRcjGYA/vl5jwaoKoaGA348kd0sLZyihCE+R+9D6mVvaU6i6YY\n2TCIT33CuITyFKlrRhU4pn/6+uit0x4dpQjvPOfX/tOCG5wsMtcKJJ0ukh9kNaby\nBRJTQC9NzYS2cQ1z2Z1+gqDyXbB6Ju54TmijPb0CgYEA21ZQZT2q8XtnoJX7Gn70\nztOwGxMebX9+83x7l7KZUI2dlfPls+uZF3Xfv5x8DIGcgI70CHO+cbtjX+baXCza\nXPPn5JSaL9dT85tUGw8sVJGW+jVGoiEp4OejqAnM1gBQKoCTgngjhvORFpc9UVrI\nsAISFnmaQmVSCRor78vb3Fk=\n-----END PRIVATE KEY-----\n",
  "client_email": "vision@po-apps.iam.gserviceaccount.com",
  "client_id": "105984617399696521702",
  "auth_uri": "https://accounts.google.com/o/oauth2/auth",
  "token_uri": "https://oauth2.googleapis.com/token",
  "auth_provider_x509_cert_url": "https://www.googleapis.com/oauth2/v1/certs",
  "client_x509_cert_url": "https://www.googleapis.com/robot/v1/metadata/x509/vision%40po-apps.iam.gserviceaccount.com"
}
