<?xml version="1.0" encoding="UTF-8"?>
<!DOCTYPE svg PUBLIC "-//W3C//DTD SVG 1.1//EN" "http://www.w3.org/Graphics/SVG/1.1/DTD/svg11.dtd">
<!-- Creator: CorelDRAW X8 -->
<svg xmlns="http://www.w3.org/2000/svg" xml:space="preserve" width="2.39733in" height="0.431457in" version="1.1" style="shape-rendering:geometricPrecision; text-rendering:geometricPrecision; image-rendering:optimizeQuality; fill-rule:evenodd; clip-rule:evenodd"
viewBox="0 0 7027 1265"
 xmlns:xlink="http://www.w3.org/1999/xlink">
 <defs>
  <style type="text/css">
   <![CDATA[
    .str0 {stroke:#848688;stroke-width:8.79399}
    .fil2 {fill:none;fill-rule:nonzero}
    .fil1 {fill:#848688;fill-rule:nonzero}
    .fil0 {fill:#4DCBBF;fill-rule:nonzero}
   ]]>
  </style>
 </defs>
 <g id="Layer_x0020_1">
  <metadata id="CorelCorpID_0Corel-Layer"/>
  <path class="fil0" d="M207 1189c8,-174 16,-351 25,-529 9,-179 21,-356 35,-530 -40,1 -82,2 -125,2 -42,1 -83,1 -122,1l-8 0c-4,-1 -8,-4 -9,-9 -2,-6 -3,-11 -3,-16 0,-6 1,-11 2,-15 1,-4 3,-6 7,-6 49,-1 100,-2 154,-3 54,0 107,-1 159,-1 53,-1 103,-1 153,-1 49,0 94,0 134,0 10,0 17,2 22,8 6,5 9,11 9,17 1,6 -1,11 -6,16 -5,4 -12,7 -21,7l-111 0c-28,0 -56,-1 -82,-1 -26,-1 -42,-1 -48,-1 -13,177 -24,354 -34,532 -9,177 -20,354 -33,531 -2,8 -7,15 -17,19 -9,4 -20,6 -32,6 -11,0 -22,-2 -33,-6 -10,-4 -15,-11 -16,-21z"/>
  <path id="1" class="fil0" d="M719 1154c5,-20 11,-49 18,-85 7,-36 18,-72 31,-108 14,-35 31,-66 52,-92 21,-26 47,-40 79,-41 32,1 56,12 72,33 16,21 27,46 33,76 6,31 9,63 8,97 0,33 0,64 0,91 1,28 4,49 8,63 5,15 15,19 31,10 15,-8 37,-30 65,-67 28,-36 56,-85 84,-148 3,-6 8,-8 17,-6 9,1 13,3 12,6 -5,15 -14,37 -27,66 -13,28 -28,57 -45,85 -18,29 -36,54 -56,78 -19,23 -38,37 -57,43 -29,10 -51,9 -66,-3 -16,-12 -27,-30 -34,-54 -7,-23 -12,-51 -14,-83 -3,-31 -5,-62 -8,-92 -2,-30 -6,-58 -12,-83 -6,-25 -15,-43 -29,-53 -8,-6 -16,-5 -25,3 -9,8 -15,16 -19,22 -18,33 -32,67 -43,102 -10,35 -20,67 -28,96 -9,29 -17,54 -26,73 -9,20 -20,31 -33,33 -19,4 -35,-9 -48,-37 -13,-29 -24,-63 -33,-103 -9,-39 -16,-79 -21,-118 -4,-39 -7,-67 -8,-84 -6,-63 -10,-130 -10,-202 -1,-72 3,-140 11,-206 9,-65 22,-123 41,-174 19,-51 45,-87 79,-109 33,-21 68,-30 104,-26 36,3 61,23 76,60 10,29 15,62 13,101 -2,38 -8,80 -17,125 -10,45 -22,92 -38,139 -16,48 -34,94 -53,138 -19,45 -38,86 -58,125 -19,38 -37,71 -54,99 5,46 9,85 14,117 5,32 10,63 14,93zm-32 -258c15,-25 30,-56 48,-92 17,-36 34,-75 50,-116 17,-41 33,-83 48,-127 14,-44 26,-87 35,-128 9,-41 14,-79 15,-114 1,-35 -3,-65 -12,-89 -6,-15 -14,-26 -25,-33 -11,-8 -25,-6 -43,6 -26,16 -47,41 -63,74 -16,32 -29,70 -38,112 -10,42 -17,87 -21,135 -4,48 -6,95 -6,141 0,46 1,89 4,129 3,40 6,74 8,102z"/>
  <path id="2" class="fil0" d="M1838 983c-14,45 -36,86 -65,122 -29,36 -60,60 -91,72 -32,12 -62,7 -92,-14 -29,-22 -52,-69 -67,-141 -8,19 -15,39 -23,59 -7,20 -17,39 -27,57 -11,18 -24,32 -39,44 -14,12 -33,19 -54,20 -31,2 -58,-3 -81,-16 -23,-13 -42,-30 -58,-52 -15,-21 -27,-45 -34,-72 -7,-27 -9,-53 -7,-79 3,-32 12,-64 30,-95 17,-30 38,-56 62,-76 24,-20 51,-33 79,-39 29,-6 56,-2 82,14 24,15 45,40 62,73 3,5 3,9 1,13 -1,4 -4,7 -8,9 -3,2 -7,3 -12,2 -5,-1 -8,-3 -11,-8 -6,-12 -15,-24 -27,-36 -11,-12 -24,-17 -37,-16 -21,1 -43,14 -66,37 -22,23 -40,59 -51,109 -6,24 -8,47 -5,69 3,22 8,41 16,57 8,16 18,29 30,39 13,10 26,16 39,17 22,2 39,-7 51,-29 12,-21 23,-46 32,-76 10,-30 20,-59 31,-88 10,-29 25,-51 42,-65 9,-7 18,-12 29,-14 11,-1 20,0 28,3 9,4 15,9 20,17 5,8 6,17 5,28 -6,34 -7,64 -3,90 3,25 10,46 19,62 10,16 21,27 33,32 13,5 25,4 37,-3 24,-13 43,-29 58,-50 14,-20 29,-45 43,-76 4,-9 9,-13 17,-13 8,0 12,4 12,13z"/>
  <path id="3" class="fil0" d="M2447 983c-14,45 -36,86 -65,122 -29,36 -60,60 -91,72 -31,12 -62,7 -92,-14 -29,-22 -52,-69 -67,-141 -8,19 -15,39 -23,59 -7,20 -17,39 -27,57 -11,18 -24,32 -39,44 -14,12 -32,19 -54,20 -31,2 -58,-3 -81,-16 -23,-13 -42,-30 -58,-52 -15,-21 -26,-45 -34,-72 -7,-27 -9,-53 -7,-79 3,-32 12,-64 30,-95 17,-30 38,-56 62,-76 24,-20 51,-33 79,-39 29,-6 56,-2 82,14 24,15 45,40 62,73 3,5 3,9 1,13 -1,4 -4,7 -8,9 -3,2 -7,3 -12,2 -5,-1 -8,-3 -11,-8 -6,-12 -15,-24 -27,-36 -11,-12 -24,-17 -37,-16 -21,1 -43,14 -66,37 -22,23 -40,59 -51,109 -6,24 -8,47 -5,69 3,22 8,41 16,57 8,16 18,29 30,39 13,10 26,16 39,17 22,2 39,-7 51,-29 12,-21 23,-46 32,-76 10,-30 20,-59 31,-88 10,-29 25,-51 42,-65 9,-7 18,-12 29,-14 11,-1 20,0 28,3 9,4 15,9 20,17 5,8 7,17 5,28 -6,34 -7,64 -3,90 3,25 10,46 19,62 10,16 21,27 33,32 13,5 25,4 37,-3 24,-13 43,-29 58,-50 15,-20 29,-45 43,-76 4,-9 9,-13 17,-13 8,0 12,4 12,13z"/>
  <path id="4" class="fil0" d="M2522 796l-20 308c7,-21 16,-48 27,-80 10,-32 22,-63 35,-93 13,-30 29,-55 47,-76 17,-20 37,-31 58,-31 15,0 26,5 35,15 9,9 16,21 21,36 4,15 8,31 9,49 2,18 2,34 1,50 0,12 0,27 -1,44 0,18 0,37 0,56 0,19 0,37 2,54 2,17 5,30 8,40 7,18 18,22 32,12 14,-11 29,-27 45,-51 15,-24 29,-50 42,-78 14,-28 22,-50 27,-68 5,-16 11,-21 19,-16 8,5 11,10 10,16 -7,22 -17,48 -28,76 -11,29 -25,56 -40,81 -15,26 -33,48 -53,68 -21,20 -43,32 -68,37 -23,3 -40,-2 -51,-15 -11,-13 -19,-31 -23,-53 -4,-23 -6,-48 -5,-77 0,-28 1,-55 3,-82 2,-26 3,-49 3,-70 0,-21 -2,-35 -7,-42 -3,-3 -8,1 -15,14 -8,12 -17,29 -27,50 -10,22 -21,45 -31,72 -11,26 -21,50 -30,73 -8,22 -16,41 -22,57 -6,15 -9,23 -9,24 0,3 -4,5 -11,6 -8,1 -17,2 -27,2 -10,1 -20,1 -29,0 -8,-2 -14,-3 -16,-6 -5,-4 -9,-16 -11,-35 -3,-19 -4,-42 -5,-70 0,-27 0,-56 1,-88 1,-31 3,-61 5,-90 2,-28 4,-54 6,-76 2,-22 5,-37 7,-45 0,-8 5,-14 13,-18 9,-3 19,-5 30,-5 11,0 20,2 29,6 9,4 14,11 14,19z"/>
  <path id="5" class="fil0" d="M3528 983c-15,45 -36,86 -65,122 -29,36 -60,60 -91,72 -32,12 -62,7 -92,-14 -29,-22 -52,-69 -67,-141 -8,19 -15,39 -23,59 -7,20 -17,39 -27,57 -11,18 -24,32 -39,44 -14,12 -33,19 -54,20 -31,2 -58,-3 -81,-16 -23,-13 -42,-30 -58,-52 -15,-21 -27,-45 -34,-72 -7,-27 -9,-53 -7,-79 3,-32 12,-64 30,-95 17,-30 38,-56 62,-76 24,-20 51,-33 79,-39 29,-6 56,-2 82,14 24,15 45,40 62,73 3,5 3,9 1,13 -1,4 -4,7 -8,9 -3,2 -7,3 -12,2 -5,-1 -8,-3 -11,-8 -6,-12 -15,-24 -27,-36 -11,-12 -24,-17 -37,-16 -21,1 -43,14 -66,37 -22,23 -40,59 -51,109 -6,24 -8,47 -5,69 3,22 8,41 16,57 8,16 18,29 30,39 13,10 26,16 39,17 22,2 39,-7 51,-29 12,-21 23,-46 32,-76 10,-30 20,-59 31,-88 10,-29 25,-51 42,-65 9,-7 18,-12 29,-14 11,-1 20,0 28,3 9,4 15,9 20,17 5,8 6,17 5,28 -6,34 -7,64 -3,90 3,25 10,46 19,62 10,16 21,27 33,32 13,5 25,4 37,-3 23,-13 43,-29 58,-50 14,-20 29,-45 43,-76 4,-9 9,-13 17,-13 8,0 12,4 12,13z"/>
  <path class="fil1" d="M3553 617c0,-112 28,-214 83,-308 55,-94 130,-168 224,-223 94,-54 197,-82 308,-82 112,0 214,28 307,82 93,55 166,129 220,223 54,94 81,196 81,308 0,111 -27,214 -81,307 -54,93 -127,167 -220,221 -93,54 -195,81 -307,81 -112,0 -215,-27 -309,-81 -94,-54 -168,-128 -224,-221 -55,-93 -82,-196 -82,-307zm49 0c0,103 26,197 76,283 50,86 119,153 205,203 87,50 182,75 285,75 104,0 198,-25 283,-75 86,-50 153,-117 203,-203 49,-85 73,-180 73,-283 0,-104 -24,-199 -73,-285 -50,-86 -117,-154 -203,-204 -85,-49 -179,-74 -283,-74 -103,0 -198,25 -285,75 -86,50 -155,118 -205,204 -50,86 -76,181 -76,284z"/>
  <path id="1" class="fil1" d="M5916 1050c6,-5 12,-8 18,-8 6,0 10,2 14,6l2 2c3,3 5,7 5,13 0,9 -4,16 -11,22 -53,45 -112,80 -176,105 -64,25 -132,37 -204,37 -111,0 -214,-27 -309,-82 -94,-54 -169,-128 -225,-222 -55,-93 -83,-196 -83,-307 0,-112 27,-214 83,-307 55,-94 130,-168 225,-222 95,-55 198,-82 309,-82 72,0 140,12 204,37 64,24 123,58 177,103 9,9 13,16 13,23 0,1 0,3 -1,5 -1,1 -1,3 -1,3l-2 4 -1 0c-5,5 -11,8 -18,8 -6,0 -12,-2 -18,-7 -111,-85 -228,-127 -353,-127 -103,0 -198,25 -286,74 -87,50 -156,118 -207,204 -51,86 -77,181 -77,284 0,103 26,198 77,284 51,86 121,154 208,204 87,50 182,75 285,75 125,0 242,-44 352,-129z"/>
  <path id="2" class="fil1" d="M6758 746c-34,10 -69,15 -106,15l-433 0 0 429c0,16 -7,24 -22,24l-1 0c-15,0 -22,-8 -22,-24l0 -1150c0,-15 7,-22 22,-22l456 0c67,0 129,16 186,50 57,34 102,79 135,136 33,57 50,120 50,187 0,74 -20,141 -60,202 -40,60 -93,105 -158,136l188 453c1,4 1,7 1,8 0,6 -2,12 -7,17 -5,4 -10,7 -15,7l-3 0c-4,0 -8,-2 -12,-4 -5,-2 -8,-7 -11,-13l-188 -451zm-539 -32l433 0c59,0 114,-14 164,-43 50,-29 89,-68 117,-117 29,-50 43,-104 43,-163 0,-60 -14,-115 -43,-165 -28,-50 -67,-90 -117,-119 -50,-29 -105,-43 -164,-43l-433 0 0 650z"/>
  <path id="3" class="fil2 str0" d="M3553 617c0,-112 28,-214 83,-308 55,-94 130,-168 224,-223 94,-54 197,-82 308,-82 112,0 214,28 307,82 93,55 166,129 220,223 54,94 81,196 81,308 0,111 -27,214 -81,307 -54,93 -127,167 -220,221 -93,54 -195,81 -307,81 -112,0 -215,-27 -309,-81 -94,-54 -168,-128 -224,-221 -55,-93 -82,-196 -82,-307zm49 0c0,103 26,197 76,283 50,86 119,153 205,203 87,50 182,75 285,75 104,0 198,-25 283,-75 86,-50 153,-117 203,-203 49,-85 73,-180 73,-283 0,-104 -24,-199 -73,-285 -50,-86 -117,-154 -203,-204 -85,-49 -179,-74 -283,-74 -103,0 -198,25 -285,75 -86,50 -155,118 -205,204 -50,86 -76,181 -76,284z"/>
  <path id="4" class="fil2 str0" d="M5916 1050c6,-5 12,-8 18,-8 6,0 10,2 14,6l2 2c3,3 5,7 5,13 0,9 -4,16 -11,22 -53,45 -112,80 -176,105 -64,25 -132,37 -204,37 -111,0 -214,-27 -309,-82 -94,-54 -169,-128 -225,-222 -55,-93 -83,-196 -83,-307 0,-112 27,-214 83,-307 55,-94 130,-168 225,-222 95,-55 198,-82 309,-82 72,0 140,12 204,37 64,24 123,58 177,103 9,9 13,16 13,23 0,1 0,3 -1,5 -1,1 -1,3 -1,3l-2 4 -1 0c-5,5 -11,8 -18,8 -6,0 -12,-2 -18,-7 -111,-85 -228,-127 -353,-127 -103,0 -198,25 -286,74 -87,50 -156,118 -207,204 -51,86 -77,181 -77,284 0,103 26,198 77,284 51,86 121,154 208,204 87,50 182,75 285,75 125,0 242,-44 352,-129z"/>
  <path id="5" class="fil2 str0" d="M6758 746c-34,10 -69,15 -106,15l-433 0 0 429c0,16 -7,24 -22,24l-1 0c-15,0 -22,-8 -22,-24l0 -1150c0,-15 7,-22 22,-22l456 0c67,0 129,16 186,50 57,34 102,79 135,136 33,57 50,120 50,187 0,74 -20,141 -60,202 -40,60 -93,105 -158,136l188 453c1,4 1,7 1,8 0,6 -2,12 -7,17 -5,4 -10,7 -15,7l-3 0c-4,0 -8,-2 -12,-4 -5,-2 -8,-7 -11,-13l-188 -451zm-539 -32l433 0c59,0 114,-14 164,-43 50,-29 89,-68 117,-117 29,-50 43,-104 43,-163 0,-60 -14,-115 -43,-165 -28,-50 -67,-90 -117,-119 -50,-29 -105,-43 -164,-43l-433 0 0 650z"/>
 </g>
</svg>
