StartFontMetrics 2.0
Comment Generated by FontForge 20190801
Comment Creation Date: Fri Nov 27 08:23:57 2020
FontName MVFaseyha
FullName MVFaseyha
FamilyName MV Faseyha
Weight Book
Notice (Calligraphy:  Abdulla Waheed, Office of the President;  Managed by Hassan Shujau;  Edited by Hassan Hameed;  November 1995;  All rights reserved.  Based on the 1968 Viyafaari Miadhu Aharee Number.)
ItalicAngle -16
IsFixedPitch false
UnderlinePosition -190
UnderlineThickness 49
Version 1.000 2009 initial release
EncodingScheme ISO10646-1
FontBBox -179 -505 1535 884
StartCharMetrics 123
C 32 ; WX 586 ; N space ; B 0 0 0 0 ;
C 33 ; WX 333 ; N exclam ; B 55 144 297 837 ;
C 34 ; WX 420 ; N quotedbl ; B 64 392 372 677 ;
C 35 ; WX 500 ; N numbersign ; B 18 -14 481 677 ;
C 36 ; WX 674 ; N dollar ; B 94 1 545 616 ;
C 37 ; WX 833 ; N percent ; B 70 -28 817 677 ;
C 38 ; WX 675 ; N ampersand ; B 23 -7 517 491 ;
C 39 ; WX 214 ; N quotesingle ; B 131 392 261 677 ;
C 40 ; WX 333 ; N parenleft ; B 68 -214 442 694 ;
C 41 ; WX 333 ; N parenright ; B -109 -214 265 694 ;
C 42 ; WX 500 ; N asterisk ; B 71 89 430 494 ;
C 43 ; WX 675 ; N plus ; B 85 69 619 595 ;
C 44 ; WX 250 ; N comma ; B 55 160 198 373 ;
C 45 ; WX 333 ; N hyphen ; B 26 185 299 250 ;
C 46 ; WX 250 ; N period ; B 74 189 173 287 ;
C 47 ; WX 278 ; N slash ; B -34 -15 381 694 ;
C 48 ; WX 467 ; N zero ; B 27 -12 461 676 ;
C 49 ; WX 401 ; N one ; B 13 0 369 676 ;
C 50 ; WX 500 ; N two ; B 16 0 469 676 ;
C 51 ; WX 470 ; N three ; B 3 -12 424 676 ;
C 52 ; WX 500 ; N four ; B 31 -12 487 662 ;
C 53 ; WX 479 ; N five ; B 15 -12 458 662 ;
C 54 ; WX 457 ; N six ; B 20 -12 481 676 ;
C 55 ; WX 423 ; N seven ; B 36 -12 446 662 ;
C 56 ; WX 477 ; N eight ; B 14 -12 465 676 ;
C 57 ; WX 500 ; N nine ; B 29 -12 491 676 ;
C 58 ; WX 333 ; N colon ; B 182 139 348 470 ;
C 59 ; WX 333 ; N semicolon ; B 147 140 356 580 ;
C 60 ; WX 675 ; N less ; B 87 91 666 572 ;
C 61 ; WX 675 ; N equal ; B 67 232 637 431 ;
C 62 ; WX 675 ; N greater ; B 37 91 616 572 ;
C 64 ; WX 612 ; N at ; B 3 6 584 585 ;
C 91 ; WX 389 ; N bracketleft ; B 6 -199 471 677 ;
C 92 ; WX 278 ; N backslash ; B 106 -15 231 694 ;
C 93 ; WX 389 ; N bracketright ; B -90 -199 375 677 ;
C 96 ; WX 1545 ; N grave ; B 10 -206 1535 480 ;
C 123 ; WX 400 ; N braceleft ; B 109 -216 515 694 ;
C 124 ; WX 275 ; N bar ; B 79 -216 119 694 ;
C 125 ; WX 400 ; N braceright ; B -34 -216 372 694 ;
C 171 ; WX 600 ; N guillemotleft ; B 62 0 552 424 ;
C 183 ; WX 364 ; N uni00B7 ; B 130 186 276 332 ;
C 187 ; WX 600 ; N guillemotright ; B 23 0 513 424 ;
C 215 ; WX 1019 ; N multiply ; B -9 -168 991 482 ;
C -1 ; WX 287 ; N tilde ; B 47 263 283 360 ;
C -1 ; WX 185 ; N afii57388 ; B 46 73 151 277 ;
C -1 ; WX 185 ; N afii57403 ; B 48 0 153 408 ;
C -1 ; WX 500 ; N afii57407 ; B 154 -15 489 677 ;
C -1 ; WX 542 ; N uni0780 ; B 4 -3 555 303 ;
C -1 ; WX 553 ; N uni0781 ; B -120 -61 562 308 ;
C -1 ; WX 663 ; N uni0782 ; B -179 -58 652 303 ;
C -1 ; WX 618 ; N uni0783 ; B -80 -61 607 332 ;
C -1 ; WX 559 ; N uni0784 ; B 71 9 569 314 ;
C -1 ; WX 547 ; N uni0785 ; B 18 -26 545 372 ;
C -1 ; WX 565 ; N uni0786 ; B 130 22 571 305 ;
C -1 ; WX 559 ; N uni0787 ; B 28 -35 562 303 ;
C -1 ; WX 560 ; N uni0788 ; B 35 -90 563 304 ;
C -1 ; WX 570 ; N uni0789 ; B 54 -59 577 304 ;
C -1 ; WX 552 ; N uni078A ; B 16 -146 555 380 ;
C -1 ; WX 571 ; N uni078B ; B -102 -87 593 386 ;
C -1 ; WX 553 ; N uni078C ; B 15 -104 560 304 ;
C -1 ; WX 562 ; N uni078D ; B -46 -59 573 369 ;
C -1 ; WX 560 ; N uni078E ; B 85 -59 565 314 ;
C -1 ; WX 616 ; N uni078F ; B 20 -105 612 306 ;
C -1 ; WX 957 ; N uni0790 ; B -6 62 959 347 ;
C -1 ; WX 567 ; N uni0791 ; B 198 -56 477 309 ;
C -1 ; WX 568 ; N uni0792 ; B 62 -132 573 334 ;
C -1 ; WX 573 ; N uni0793 ; B 71 -136 564 322 ;
C -1 ; WX 576 ; N uni0794 ; B -54 -50 597 313 ;
C -1 ; WX 565 ; N uni0795 ; B 21 -149 560 380 ;
C -1 ; WX 570 ; N uni0796 ; B 81 -133 559 372 ;
C -1 ; WX 577 ; N uni0797 ; B -15 -94 779 540 ;
C -1 ; WX 578 ; N uni0798 ; B 0 -160 564 469 ;
C -1 ; WX 568 ; N uni0799 ; B 20 -3 570 303 ;
C -1 ; WX 575 ; N uni079A ; B 25 -3 576 436 ;
C -1 ; WX 588 ; N uni079B ; B -119 -167 596 476 ;
C -1 ; WX 636 ; N uni079C ; B -48 -61 639 435 ;
C -1 ; WX 968 ; N uni079D ; B 23 28 992 453 ;
C -1 ; WX 987 ; N uni079E ; B 23 -8 992 296 ;
C -1 ; WX 960 ; N uni079F ; B -30 28 939 391 ;
C -1 ; WX 589 ; N uni07A0 ; B 15 -110 579 301 ;
C -1 ; WX 563 ; N uni07A1 ; B -10 -110 554 438 ;
C -1 ; WX 559 ; N uni07A2 ; B 29 -62 567 303 ;
C -1 ; WX 566 ; N uni07A3 ; B 49 -34 573 460 ;
C -1 ; WX 508 ; N uni07A4 ; B 29 -59 522 437 ;
C -1 ; WX 568 ; N uni07A5 ; B 33 -120 562 448 ;
C -1 ; WX 0 ; N uni07A6nsp ; B 72 450 480 722 ;
C -1 ; WX 0 ; N uni07A7nsp ; B 83 444 486 802 ;
C -1 ; WX 0 ; N uni07A8nsp ; B 2 -495 409 -223 ;
C -1 ; WX 0 ; N uni07A9nsp ; B 0 -505 320 -139 ;
C -1 ; WX 0 ; N uni07AAnsp ; B 135 451 476 753 ;
C -1 ; WX 0 ; N uni07ABnsp ; B 53 454 631 740 ;
C -1 ; WX 0 ; N uni07ACnsp ; B 157 451 465 771 ;
C -1 ; WX 0 ; N uni07ADnsp ; B 41 447 603 726 ;
C -1 ; WX 2 ; N uni07AEnsp ; B 47 427 616 746 ;
C -1 ; WX 1 ; N uni07AFnsp ; B 86 451 575 884 ;
C -1 ; WX 0 ; N uni07B0nsp ; B 118 455 451 759 ;
C -1 ; WX 550 ; N endash ; B 90 148 467 212 ;
C -1 ; WX 500 ; N emdash ; B -8 -216 509 -175 ;
C -1 ; WX 316 ; N quoteleft ; B 176 528 307 756 ;
C -1 ; WX 364 ; N quoteright ; B 193 435 324 663 ;
C -1 ; WX 474 ; N quotedblleft ; B 187 552 454 741 ;
C -1 ; WX 521 ; N quotedblright ; B 255 552 522 741 ;
C -1 ; WX 482 ; N bullet ; B 73 101 434 462 ;
C -1 ; WX 991 ; N uniFDF2 ; B 59 62 871 869 ;
C -1 ; WX 393 ; N .notdef ; B 0 0 0 0 ;
C -1 ; WX 0 ; N .null ; B 0 0 0 0 ;
C -1 ; WX 500 ; N nonmarkingreturn ; B 0 0 0 0 ;
C -1 ; WX 50 ; N uni07A6 ; B 215 450 623 722 ;
C -1 ; WX 50 ; N uni07A7 ; B 194 444 597 802 ;
C -1 ; WX 50 ; N uni07A8 ; B -50 -495 357 -223 ;
C -1 ; WX 50 ; N uni07A9 ; B 54 -505 374 -139 ;
C -1 ; WX 50 ; N uni07AA ; B 202 451 543 753 ;
C -1 ; WX 50 ; N uni07AB ; B 111 454 689 740 ;
C -1 ; WX 50 ; N uni07AC ; B 255 451 563 771 ;
C -1 ; WX 50 ; N uni07AD ; B 144 447 706 726 ;
C -1 ; WX 50 ; N uni07AE ; B 130 427 699 746 ;
C -1 ; WX 50 ; N uni07AF ; B 209 451 698 884 ;
C -1 ; WX 50 ; N uni07B0 ; B 247 455 580 759 ;
C -1 ; WX 333 ; N DotAbove ; B 116 8 185 78 ;
C -1 ; WX 333 ; N DotBelow ; B 116 8 185 78 ;
C -1 ; WX 333 ; N TwoDots ; B 36 8 215 80 ;
C -1 ; WX 333 ; N ThreeDots ; B 16 -4 220 149 ;
C -1 ; WX 1000 ; N .notdef.001 ; B 125 0 875 750 ;
EndCharMetrics
EndFontMetrics
